j = 1722
str = 'p'
i = -5, even = -990, odd = -999, prime = 0
i = -4, even = -4, odd = -999, prime = 0
i = -3, even = -4, odd = -3, prime = 0
i = -2, even = -2, odd = -3, prime = 0
i = -1, even = -2, odd = -1, prime = 0
i = 0, even = 0, odd = -1, prime = 0
i = 1, even = 0, odd = 1, prime = 0
i = 2, even = 0, odd = 1, prime = 2
i = 3, even = 0, odd = 1, prime = 3
i = 4, even = 4, odd = 1, prime = 3
i = 5, even = 4, odd = 1, prime = 5
i = 6, even = 6, odd = 1, prime = 5
i = 7, even = 6, odd = 1, prime = 7
i = 8, even = 8, odd = 1, prime = 7
i = 9, even = 8, odd = 9, prime = 7
i = 10, even = 10, odd = 9, prime = 7
i = 11, even = 10, odd = 9, prime = 11
i = 12, even = 12, odd = 9, prime = 11
i = 13, even = 12, odd = 9, prime = 11
i = 14, even = 12, odd = 9, prime = 11
i = 15, even = 12, odd = 9, prime = 11

[10 milliseconds execution time.]
